{
  "content": [
    {
      "id": "617a56dc-c39a-4176-a671-292959df19c6",
      "class": "Storey",
      "createdTime": "2020-06-02T13:25:30.493Z",
      "updatedTime": "2020-06-02T13:25:30.493Z",
      "hasAlias": [],
      "comment": {},
      "littera": "1",
      "popularName": "1",
      "updatedByAgent": "testuser1@idunrealestate.com",
      "createdByAgent": "testuser1@idunrealestate.com",
      "source": {},
      "isPartOfBuilding": "dbc543c9-c0f3-49ac-9cd3-69f75dd6e1d1",
      "hasSuperBuildingComponent": null,
      "hasSubBuildingComponent": null,
      "isLocatedAtLocalCoordinates": null
    },
    {
      "id": "fc260202-791b-4096-9049-62b73ce57cad",
      "class": "Storey",
      "createdTime": "2020-06-02T13:25:30.493Z",
      "updatedTime": "2020-06-02T13:25:30.493Z",
      "hasAlias": [],
      "comment": {},
      "littera": "1",
      "popularName": "1",
      "updatedByAgent": "testuser1@idunrealestate.com",
      "createdByAgent": "testuser1@idunrealestate.com",
      "source": {},
      "isPartOfBuilding": "9dbb16ee-4aa9-45e7-bb02-bc2442df523d",
      "hasSuperBuildingComponent": null,
      "hasSubBuildingComponent": null,
      "isLocatedAtLocalCoordinates": null
    },
    {
      "id": "bd951b14-fd5e-496e-9b19-354207fc5919",
      "class": "Storey",
      "createdTime": "2020-06-02T13:25:30.493Z",
      "updatedTime": "2020-06-02T13:25:30.493Z",
      "hasAlias": [],
      "comment": {},
      "littera": "1",
      "popularName": "1",
      "updatedByAgent": "testuser1@idunrealestate.com",
      "createdByAgent": "testuser1@idunrealestate.com",
      "source": {},
      "isPartOfBuilding": "ed2f799f-766f-4e1a-95ab-2f939030cfa5",
      "hasSuperBuildingComponent": null,
      "hasSubBuildingComponent": null,
      "isLocatedAtLocalCoordinates": null
    },
    {
      "id": "fe1cf703-6a3f-45af-9a9f-9dbe359d2c99",
      "class": "Storey",
      "createdTime": "2020-06-02T13:25:30.493Z",
      "updatedTime": "2020-06-02T13:25:30.493Z",
      "hasAlias": [],
      "comment": {},
      "littera": "1",
      "popularName": "1",
      "updatedByAgent": "testuser1@idunrealestate.com",
      "createdByAgent": "testuser1@idunrealestate.com",
      "source": {},
      "isPartOfBuilding": "9195561c-6e3a-49e3-b1ed-191c9761749d",
      "hasSuperBuildingComponent": null,
      "hasSubBuildingComponent": null,
      "isLocatedAtLocalCoordinates": null
    },
    {
      "id": "c1fa9c3c-e39e-41af-9354-03bd76c5e626",
      "class": "Storey",
      "createdTime": "2020-06-02T13:25:30.493Z",
      "updatedTime": "2020-06-02T13:25:30.493Z",
      "hasAlias": [],
      "comment": {},
      "littera": "1",
      "popularName": "1",
      "updatedByAgent": "testuser1@idunrealestate.com",
      "createdByAgent": "testuser1@idunrealestate.com",
      "source": {},
      "isPartOfBuilding": "fab74653-2143-457c-adec-3ba96ff11b02",
      "hasSuperBuildingComponent": null,
      "hasSubBuildingComponent": null,
      "isLocatedAtLocalCoordinates": null
    },
    {
      "id": "e375c920-fa1d-4ce4-ad9a-5f9a3d975e01",
      "class": "Storey",
      "createdTime": "2020-06-02T13:25:30.493Z",
      "updatedTime": "2020-06-02T13:25:30.493Z",
      "hasAlias": [],
      "comment": {},
      "littera": "1",
      "popularName": "1",
      "updatedByAgent": "testuser1@idunrealestate.com",
      "createdByAgent": "testuser1@idunrealestate.com",
      "source": {},
      "isPartOfBuilding": "34736694-d52e-4fc9-b906-90ea69c1569e",
      "hasSuperBuildingComponent": null,
      "hasSubBuildingComponent": null,
      "isLocatedAtLocalCoordinates": null
    },
    {
      "id": "d954273e-b59d-461e-b5c5-224991d37e7f",
      "class": "Storey",
      "createdTime": "2020-06-02T13:25:30.493Z",
      "updatedTime": "2020-06-02T13:25:30.493Z",
      "hasAlias": [],
      "comment": {},
      "littera": "1",
      "popularName": "1",
      "updatedByAgent": "testuser1@idunrealestate.com",
      "createdByAgent": "testuser1@idunrealestate.com",
      "source": {},
      "isPartOfBuilding": "abd10a9c-3f29-45b0-b55f-0b9a01fa913f",
      "hasSuperBuildingComponent": null,
      "hasSubBuildingComponent": null,
      "isLocatedAtLocalCoordinates": null
    },
    {
      "id": "0d93cf93-e927-490e-b043-33472d24575e",
      "class": "Storey",
      "createdTime": "2020-06-02T13:25:30.493Z",
      "updatedTime": "2020-06-02T13:25:30.493Z",
      "hasAlias": [],
      "comment": {},
      "littera": "1",
      "popularName": "1",
      "updatedByAgent": "testuser1@idunrealestate.com",
      "createdByAgent": "testuser1@idunrealestate.com",
      "source": {},
      "isPartOfBuilding": "79b213c9-57d9-4969-9963-70efd069c0d3",
      "hasSuperBuildingComponent": null,
      "hasSubBuildingComponent": null,
      "isLocatedAtLocalCoordinates": null
    },
    {
      "id": "d92a2a9f-6a4c-4cf0-9ddc-43f5666ebe37",
      "class": "Storey",
      "createdTime": "2020-06-02T13:25:30.493Z",
      "updatedTime": "2020-06-02T13:25:30.493Z",
      "hasAlias": [],
      "comment": {},
      "littera": "1",
      "popularName": "1",
      "updatedByAgent": "testuser1@idunrealestate.com",
      "createdByAgent": "testuser1@idunrealestate.com",
      "source": {},
      "isPartOfBuilding": "90a21909-9c19-4f06-9b5e-7c77293e3593",
      "hasSuperBuildingComponent": null,
      "hasSubBuildingComponent": null,
      "isLocatedAtLocalCoordinates": null
    },
    {
      "id": "1424a5eb-902f-42c9-ad36-ccc020955927",
      "class": "Storey",
      "createdTime": "2020-06-02T13:25:30.493Z",
      "updatedTime": "2020-06-02T13:25:30.493Z",
      "hasAlias": [],
      "comment": {},
      "littera": "1",
      "popularName": "1",
      "updatedByAgent": "testuser1@idunrealestate.com",
      "createdByAgent": "testuser1@idunrealestate.com",
      "source": {},
      "isPartOfBuilding": "f690d9c9-d4cc-4a9c-a064-ca290f4c0999",
      "hasSuperBuildingComponent": null,
      "hasSubBuildingComponent": null,
      "isLocatedAtLocalCoordinates": null
    },
    {
      "id": "9f249534-c69c-4a2c-bc3b-ea35f4ce3ead",
      "class": "Storey",
      "createdTime": "2020-06-02T13:25:30.493Z",
      "updatedTime": "2020-06-02T13:25:30.493Z",
      "hasAlias": [],
      "comment": {},
      "littera": "1",
      "popularName": "1",
      "updatedByAgent": "testuser1@idunrealestate.com",
      "createdByAgent": "testuser1@idunrealestate.com",
      "source": {},
      "isPartOfBuilding": "bb21c959-4b73-4a73-93ca-ec2a94b09f94",
      "hasSuperBuildingComponent": null,
      "hasSubBuildingComponent": null,
      "isLocatedAtLocalCoordinates": null
    },
    {
      "id": "ce5de939-3499-49ee-a316-7f5f06c2421a",
      "class": "Storey",
      "createdTime": "2020-06-02T13:25:30.493Z",
      "updatedTime": "2020-06-02T13:25:30.493Z",
      "hasAlias": [],
      "comment": {},
      "littera": "1",
      "popularName": "1",
      "updatedByAgent": "testuser1@idunrealestate.com",
      "createdByAgent": "testuser1@idunrealestate.com",
      "source": {},
      "isPartOfBuilding": "9149a429-461b-4aca-9c5e-f07a44badad3",
      "hasSuperBuildingComponent": null,
      "hasSubBuildingComponent": null,
      "isLocatedAtLocalCoordinates": null
    },
    {
      "id": "07a2b26a-09bc-4299-9ea0-f1e60c4b651c",
      "class": "Storey",
      "createdTime": "2020-06-02T13:25:30.493Z",
      "updatedTime": "2020-06-02T13:25:30.493Z",
      "hasAlias": [],
      "comment": {},
      "littera": "1",
      "popularName": "1",
      "updatedByAgent": "testuser1@idunrealestate.com",
      "createdByAgent": "testuser1@idunrealestate.com",
      "source": {},
      "isPartOfBuilding": "9c615b9b-6b31-4ad2-919c-97661077b001",
      "hasSuperBuildingComponent": null,
      "hasSubBuildingComponent": null,
      "isLocatedAtLocalCoordinates": null
    },
    {
      "id": "3f065d63-7d95-417d-9b24-19647294aa9c",
      "class": "Storey",
      "createdTime": "2020-06-02T13:25:30.493Z",
      "updatedTime": "2020-06-02T13:25:30.493Z",
      "hasAlias": [],
      "comment": {},
      "littera": "1",
      "popularName": "1",
      "updatedByAgent": "testuser1@idunrealestate.com",
      "createdByAgent": "testuser1@idunrealestate.com",
      "source": {},
      "isPartOfBuilding": "974d32de-6957-45fe-bbf9-e10efddc1cba",
      "hasSuperBuildingComponent": null,
      "hasSubBuildingComponent": null,
      "isLocatedAtLocalCoordinates": null
    },
    {
      "id": "1753352b-de03-4069-9dc5-4dd57d554457",
      "class": "Storey",
      "createdTime": "2020-06-02T13:25:30.493Z",
      "updatedTime": "2020-06-02T13:25:30.493Z",
      "hasAlias": [],
      "comment": {},
      "littera": "1",
      "popularName": "1",
      "updatedByAgent": "testuser1@idunrealestate.com",
      "createdByAgent": "testuser1@idunrealestate.com",
      "source": {},
      "isPartOfBuilding": "0ab9afa9-aec1-442b-b027-e9a03c9dc065",
      "hasSuperBuildingComponent": null,
      "hasSubBuildingComponent": null,
      "isLocatedAtLocalCoordinates": null
    }
  ],
  "pageable": {
    "sort": {
      "sorted": false,
      "unsorted": true,
      "empty": true
    },
    "offset": 0,
    "pageNumber": 0,
    "pageSize": 15,
    "paged": true,
    "unpaged": false
  },
  "totalElements": 71,
  "totalPages": 5,
  "last": false,
  "sort": {
    "sorted": false,
    "unsorted": true,
    "empty": true
  },
  "size": 15,
  "number": 0,
  "numberOfElements": 15,
  "first": true,
  "empty": false
}
