{
  "content": [
    {
      "id": "da7ed4f2-4376-46cb-ad30-ca3396993b9e",
      "class": "RealEstate",
      "createdTime": "2019-03-05T12:11:07.000Z",
      "updatedTime": "2020-05-09T11:19:02.237Z",
      "hasAlias": [],
      "comment": {
        "REtestcomment": "test RE comment"
      },
      "littera": "A002",
      "popularName": "LillaEssingen",
      "updatedByAgent": "testuser1@idunrealestate.com",
      "createdByAgent": "testuser1@idunrealestate.com",
      "source": {
        "REtestsource": "test RE source"
      },
      "hasGeoReferenceOrigo": "19.009394;59.323099;10.0"
    },
    {
      "id": "be0e3674-7d40-479e-952f-37d773dce9fb",
      "class": "RealEstate",
      "createdTime": "2019-06-27T07:16:11.000Z",
      "updatedTime": "2020-05-29T12:11:44.290Z",
      "hasAlias": [
        {
          "id": "https://ns.proptechos.com/test-1/14523",
          "isMemberOfAliasNamespace": "97937412-0add-4094-94cd-7573b95d500e"
        },
        {
          "id": "https://ns.proptechos.com/test-2/costplace/675",
          "isMemberOfAliasNamespace": "ab47dc4c-a404-4b9c-9b92-4e6e9b4463cf"
        }
      ],
      "comment": {},
      "littera": "14523-675",
      "popularName": "Svea Artilleri 14",
      "updatedByAgent": "testuser1@idunrealestate.com",
      "createdByAgent": "testuser1@idunrealestate.com",
      "source": {},
      "hasGeoReferenceOrigo": "59.342995;19.094569;10.0"
    },
    {
      "id": "09cee999-a941-4c95-9454-4c2231f5e409",
      "class": "RealEstate",
      "createdTime": "2019-06-27T07:16:11.000Z",
      "updatedTime": "2020-05-29T12:13:39.677Z",
      "hasAlias": [
        {
          "id": "https://ns.proptechos.com/test-1/14549",
          "isMemberOfAliasNamespace": "97937412-0add-4094-94cd-7573b95d500e"
        },
        {
          "id": "https://ns.proptechos.com/test-2/costplace/692",
          "isMemberOfAliasNamespace": "ab47dc4c-a404-4b9c-9b92-4e6e9b4463cf"
        }
      ],
      "comment": {},
      "littera": "14549-692",
      "popularName": "Rosenborg 3",
      "updatedByAgent": "testuser1@idunrealestate.com",
      "createdByAgent": "testuser1@idunrealestate.com",
      "source": {},
      "hasGeoReferenceOrigo": "59.375365;19.014145;10.0"
    },
    {
      "id": "39514414-6aa6-4119-bb6e-655956610737",
      "class": "RealEstate",
      "createdTime": "2019-06-27T07:16:11.000Z",
      "updatedTime": "2020-04-27T13:46:32.477Z",
      "hasAlias": [
        {
          "id": "https://ns.proptechos.com/test-1/14551",
          "isMemberOfAliasNamespace": "97937412-0add-4094-94cd-7573b95d500e"
        },
        {
          "id": "https://ns.proptechos.com/test-2/costplace/950",
          "isMemberOfAliasNamespace": "ab47dc4c-a404-4b9c-9b92-4e6e9b4463cf"
        }
      ],
      "comment": {},
      "littera": "14551-950",
      "popularName": "Hilton 7",
      "updatedByAgent": "testuser1@idunrealestate.com",
      "createdByAgent": "testuser1@idunrealestate.com",
      "source": {},
      "hasGeoReferenceOrigo": null
    },
    {
      "id": "59abaa99-6304-4600-ab7f-251de3f6c602",
      "class": "RealEstate",
      "createdTime": "2019-06-27T07:16:11.000Z",
      "updatedTime": "2020-09-05T14:09:19.517Z",
      "hasAlias": [
        {
          "id": "https://ns.proptechos.com/test-1/14030",
          "isMemberOfAliasNamespace": "97937412-0add-4094-94cd-7573b95d500e"
        },
        {
          "id": "https://ns.proptechos.com/test-2/costplace/796",
          "isMemberOfAliasNamespace": "ab47dc4c-a404-4b9c-9b92-4e6e9b4463cf"
        }
      ],
      "comment": {},
      "littera": "14030-796_Uggleborg 12 (Klara C)",
      "popularName": "Uggleborg 12 (Klara C)",
      "updatedByAgent": "testuser1@idunrealestate.com",
      "createdByAgent": "testuser1@idunrealestate.com",
      "source": {},
      "hasGeoReferenceOrigo": "59.330169;19.06015;0.0"
    },
    {
      "id": "5637fc61-f6aa-4239-93a0-fa23faa969e6",
      "class": "RealEstate",
      "createdTime": "2019-06-27T07:16:11.000Z",
      "updatedTime": "2020-04-27T13:46:32.477Z",
      "hasAlias": [
        {
          "id": "https://ns.proptechos.com/test-1/14532",
          "isMemberOfAliasNamespace": "97937412-0add-4094-94cd-7573b95d500e"
        },
        {
          "id": "https://ns.proptechos.com/test-2/costplace/679",
          "isMemberOfAliasNamespace": "ab47dc4c-a404-4b9c-9b92-4e6e9b4463cf"
        }
      ],
      "comment": {},
      "littera": "14532-679",
      "popularName": "Katla 1 (Kista Science Tower)",
      "updatedByAgent": "testuser1@idunrealestate.com",
      "createdByAgent": "testuser1@idunrealestate.com",
      "source": {},
      "hasGeoReferenceOrigo": "59.40054;17.947412;0.0"
    },
    {
      "id": "71a359dd-60f3-45aa-b5af-9d95dfa4a49f",
      "class": "RealEstate",
      "createdTime": "2019-06-27T07:16:11.000Z",
      "updatedTime": "2020-04-27T13:46:32.477Z",
      "hasAlias": [
        {
          "id": "https://ns.proptechos.com/test-1/14045",
          "isMemberOfAliasNamespace": "97937412-0add-4094-94cd-7573b95d500e"
        },
        {
          "id": "https://ns.proptechos.com/test-2/costplace/626",
          "isMemberOfAliasNamespace": "ab47dc4c-a404-4b9c-9b92-4e6e9b4463cf"
        }
      ],
      "comment": {},
      "littera": "14045-626",
      "popularName": "Kungliga Trädgården 7 (Sverigehuset)",
      "updatedByAgent": "testuser1@idunrealestate.com",
      "createdByAgent": "testuser1@idunrealestate.com",
      "source": {},
      "hasGeoReferenceOrigo": "59.332423;19.069763;0.0"
    },
    {
      "id": "7a2f4c92-1990-4c29-9d7a-32099ee41be9",
      "class": "RealEstate",
      "createdTime": "2019-06-27T07:16:11.000Z",
      "updatedTime": "2020-09-11T10:19:06.300Z",
      "hasAlias": [
        {
          "id": "https://ns.proptechos.com/test-1/14547",
          "isMemberOfAliasNamespace": "97937412-0add-4094-94cd-7573b95d500e"
        },
        {
          "id": "https://ns.proptechos.com/test-2/costplace/690",
          "isMemberOfAliasNamespace": "ab47dc4c-a404-4b9c-9b92-4e6e9b4463cf"
        }
      ],
      "comment": {},
      "littera": "14547-690",
      "popularName": "Rosenborg 1",
      "updatedByAgent": "testuser1@idunrealestate.com",
      "createdByAgent": "testuser1@idunrealestate.com",
      "source": {},
      "hasGeoReferenceOrigo": "59.375124;19.010593;0.0"
    },
    {
      "id": "c9112e5e-9f64-41d4-a692-d04cb7c12f5d",
      "class": "RealEstate",
      "createdTime": "2019-06-27T07:16:11.000Z",
      "updatedTime": "2020-04-27T13:46:32.477Z",
      "hasAlias": [
        {
          "id": "https://ns.proptechos.com/test-1/629",
          "isMemberOfAliasNamespace": "97937412-0add-4094-94cd-7573b95d500e"
        },
        {
          "id": "https://ns.proptechos.com/test-2/costplace/939",
          "isMemberOfAliasNamespace": "ab47dc4c-a404-4b9c-9b92-4e6e9b4463cf"
        }
      ],
      "comment": {},
      "littera": "629-939",
      "popularName": "Magasinet 1",
      "updatedByAgent": "testuser1@idunrealestate.com",
      "createdByAgent": "testuser1@idunrealestate.com",
      "source": {},
      "hasGeoReferenceOrigo": "59.360929;17.97327;0.0"
    },
    {
      "id": "ad02035e-13ac-4d11-b9f3-aa406192f125",
      "class": "RealEstate",
      "createdTime": "2019-06-27T07:16:11.000Z",
      "updatedTime": "2020-09-03T12:59:49.457Z",
      "hasAlias": [
        {
          "id": "https://ns.proptechos.com/test-1/14066",
          "isMemberOfAliasNamespace": "97937412-0add-4094-94cd-7573b95d500e"
        },
        {
          "id": "https://ns.proptechos.com/test-2/costplace/631",
          "isMemberOfAliasNamespace": "ab47dc4c-a404-4b9c-9b92-4e6e9b4463cf"
        }
      ],
      "comment": {},
      "littera": "14066-631_Argus 9",
      "popularName": "Argus 9",
      "updatedByAgent": "testuser1@idunrealestate.com",
      "createdByAgent": "testuser1@idunrealestate.com",
      "source": {},
      "hasGeoReferenceOrigo": "59.323075;19.074656;0.0"
    },
    {
      "id": "9717924d-4ac3-4b92-ae77-97e34ebfd1f7",
      "class": "RealEstate",
      "createdTime": "2019-06-27T07:16:11.000Z",
      "updatedTime": "2020-04-27T13:46:32.477Z",
      "hasAlias": [
        {
          "id": "https://ns.proptechos.com/test-1/14549",
          "isMemberOfAliasNamespace": "97937412-0add-4094-94cd-7573b95d500e"
        },
        {
          "id": "https://ns.proptechos.com/test-2/costplace/691",
          "isMemberOfAliasNamespace": "ab47dc4c-a404-4b9c-9b92-4e6e9b4463cf"
        }
      ],
      "comment": {},
      "littera": "14549-691",
      "popularName": "Rosenborg 2",
      "updatedByAgent": "testuser1@idunrealestate.com",
      "createdByAgent": "testuser1@idunrealestate.com",
      "source": {},
      "hasGeoReferenceOrigo": "59.375026;19.014692;0.0"
    },
    {
      "id": "f6726a3a-1a7f-49ea-b5eb-0efebef1a6fd",
      "class": "RealEstate",
      "createdTime": "2019-06-27T07:16:11.000Z",
      "updatedTime": "2020-04-27T13:46:32.477Z",
      "hasAlias": [
        {
          "id": "https://ns.proptechos.com/test-1/631",
          "isMemberOfAliasNamespace": "97937412-0add-4094-94cd-7573b95d500e"
        },
        {
          "id": "https://ns.proptechos.com/test-2/costplace/97",
          "isMemberOfAliasNamespace": "ab47dc4c-a404-4b9c-9b92-4e6e9b4463cf"
        }
      ],
      "comment": {},
      "littera": "631-97_Skjutsgossen 9",
      "popularName": "Skjutsgossen 9",
      "updatedByAgent": "testuser1@idunrealestate.com",
      "createdByAgent": "testuser1@idunrealestate.com",
      "source": {},
      "hasGeoReferenceOrigo": "59.317195;19.056459;0.0"
    },
    {
      "id": "62557c5d-7d73-47a2-9269-da930ffbf5c5",
      "class": "RealEstate",
      "createdTime": "2019-06-27T07:16:11.000Z",
      "updatedTime": "2020-04-27T13:46:32.477Z",
      "hasAlias": [
        {
          "id": "https://ns.proptechos.com/test-1/14550",
          "isMemberOfAliasNamespace": "97937412-0add-4094-94cd-7573b95d500e"
        },
        {
          "id": "https://ns.proptechos.com/test-2/costplace/693",
          "isMemberOfAliasNamespace": "ab47dc4c-a404-4b9c-9b92-4e6e9b4463cf"
        }
      ],
      "comment": {},
      "littera": "14550-693_Rosenborg 3",
      "popularName": "Rosenborg 3",
      "updatedByAgent": "testuser1@idunrealestate.com",
      "createdByAgent": "testuser1@idunrealestate.com",
      "source": {},
      "hasGeoReferenceOrigo": null
    },
    {
      "id": "f2d25145-510b-4977-bfa0-ed21d06b1ec2",
      "class": "RealEstate",
      "createdTime": "2019-06-27T07:16:11.000Z",
      "updatedTime": "2020-04-27T13:46:32.477Z",
      "hasAlias": [
        {
          "id": "https://ns.proptechos.com/test-1/632",
          "isMemberOfAliasNamespace": "97937412-0add-4094-94cd-7573b95d500e"
        },
        {
          "id": "https://ns.proptechos.com/test-2/costplace/114",
          "isMemberOfAliasNamespace": "ab47dc4c-a404-4b9c-9b92-4e6e9b4463cf"
        }
      ],
      "comment": {},
      "littera": "632-114_Bremen 1",
      "popularName": "Bremen 1",
      "updatedByAgent": "testuser1@idunrealestate.com",
      "createdByAgent": "testuser1@idunrealestate.com",
      "source": {},
      "hasGeoReferenceOrigo": "59.349252;19.101242;0.0"
    },
    {
      "id": "1b5d06c9-9f43-46b0-93f4-e9e5d9e3c972",
      "class": "RealEstate",
      "createdTime": "2019-06-27T07:16:11.000Z",
      "updatedTime": "2020-04-27T13:46:32.477Z",
      "hasAlias": [
        {
          "id": "https://ns.proptechos.com/test-1/599",
          "isMemberOfAliasNamespace": "97937412-0add-4094-94cd-7573b95d500e"
        },
        {
          "id": "https://ns.proptechos.com/test-2/costplace/955",
          "isMemberOfAliasNamespace": "ab47dc4c-a404-4b9c-9b92-4e6e9b4463cf"
        }
      ],
      "comment": {},
      "littera": "599-955",
      "popularName": "Hammarby Gård 12 (Seaside)",
      "updatedByAgent": "testuser1@idunrealestate.com",
      "createdByAgent": "testuser1@idunrealestate.com",
      "source": {},
      "hasGeoReferenceOrigo": "59.303353;19.093324;0.0"
    }
  ],
  "pageable": {
    "sort": {
      "sorted": false,
      "unsorted": true,
      "empty": true
    },
    "offset": 0,
    "pageNumber": 0,
    "pageSize": 15,
    "paged": true,
    "unpaged": false
  },
  "totalElements": 41,
  "totalPages": 3,
  "last": false,
  "sort": {
    "sorted": false,
    "unsorted": true,
    "empty": true
  },
  "size": 15,
  "number": 0,
  "numberOfElements": 15,
  "first": true,
  "empty": false
}
